.;VENDITE VARIE;0,00
ABAA00000102;PERE ABATE pad BONECHI;5,95
ABAA00000115;PERE ABATE 18 FUSI S.;5,45
ABAA20000115;PERE ABATE 20 FUSI S.;4,45
ABAAM0000115;PERE ABATE FUSI S.;6,95
6930548977349;AGLIO conf. 200gr x 2pz BONECH;2,45
8004692302000;AGLIO conf. 200gr x 2pz BONECH;2,45
8006408002006;AGLIO conf. 200gr x 2pz BONECH;2,45
8029838002002;AGLIO conf. 200gr x 2pz BONECH;2,45
8029838710006;AGLIO conf. 200gr x 2pz BONECH;2,45
8029838710044;AGLIO conf. 200gr x 2pz BONECH;2,45
8029838715001;AGLIO conf. 200gr x 2pz BONECH;2,45
8414041100063;AGLIO conf. 200gr x 2pz BONECH;2,45
AGL500000102;AGLIO conf. 200gr x 2pz BONECH;2,45
AGLES0500102;AGLIO 5Kg BONECHI;14,95
8029838710051;AGLIO TRECCE 1Kg x 1pz BON;5,95
AGLT50000102;AGLIO TRECCE 1Kg x 1pz BON;5,95
AGLTRE000109;AGLIO TRECCE x1pz CENTROFRUTTA;3,00
8005324009366;sec. ALBICOCCHE SECCHE 200gr 1;1,85
8699234050107;sec. ALBICOCCHE SECCHE 200gr 1;1,85
8699234650109;sec. ALBICOCCHE SECCHE 200gr 1;1,85
ALBS02000102;sec. ALBICOCCHE SECCHE 200gr 1;1,85
ANACOS000125;ANANAS x1pz CHIQUITA 6;1,50
ANACRA100102;ANANAS x 1 PZ EXTRA BONECHI;1,95
8005324004415;sec. ARACHIDI 200gr. 1pz BON;1,45
8005324004422;sec. ARACHIDI 200gr. 1pz BON;1,45
8005324020439;sec. ARACHIDI 200gr. 1pz BON;1,45
8006183001508;sec. ARACHIDI 200gr. 1pz BON;1,45
8006183005049;sec. ARACHIDI 200gr. 1pz BON;1,45
ARACH0000102;sec. ARACHIDI 200gr. 1pz BON;1,45
8014116000139;sec. ARACHIDI Salate 250gr 1pz;1,25
ARACSAL00102;sec. ARACHIDI Salate 250gr 1pz;1,25
ARSANG000125;ARANCE VALENCIA 88;16,90
BAC010000125;AGLIO BIANCO 10 KG;15,00
BANACM000102;BANANE CARTONE 1a BON;10,95
BANAEC000102;BANANE CARTONE EXTRA;18,95
BANAX0000102;BANANE pad. EXTRA;2,95
BARB00000103;BIETOLE  F.lli TESI;2,00
BASFLA000125;BASILICO PALLAVICINO;2,50
BASILICO0117;BASILICO A COLLO;2,50
BASO00000102;BASILICO PAD BONECHIFRUTTA;3,95
BASO00000115;BASILICO X1 BUSTA FUSI S.;1,00
BASO00000130;BASILICO PAD BARBERA;3,00
BASVAS000125;BIETOLA ANTOGNOLI;1,00
BIE000000102;BIETOLA  BONECHI;1,95
BIE000000103;BIETOLA F.lli TESI;2,00
BIE001000109;bietola cf;2,00
BIEF00000115;BIETOLA NOSTRALE FUSI S.;3,95
BIEP00000115;BIETOLA VASCO FUSI S.;2,50
BIEPRI000125;BIETOLA FLACCA;2,00
BIET00000109;BIETOLINA CENTROFRUTTA;2,50
BIET00000130;BIETOLA BARBERA;2,00
BIETOL000125;BASILICO LAFLACCA;2,00
BIETOLA00109;bietolina cf;2,00
BIETTA000125;BIETOLA  ROSSA LA FLACCA;1,50
BRCAVO000125;BROCCOLI CAVOLO MISS;4,00
BRO000000102;BROCCOLI BONECHIFRUTTA;4,95
BROCAV000125;BROCCOLI CAVOLO DOGE;4,00
BURRSN000109;BURRINI;4,00
CANS50000102;FAG. CANNELLINI 5Kg BON;13,50
8006183003045;sec. FAG. CANNELLINI 500gr 2pz;3,65
8010870305107;sec. FAG. CANNELLINI 500gr 2pz;3,65
8033576263014;sec. FAG. CANNELLINI 500gr 2pz;3,65
CANX00000102;sec. FAG. CANNELLINI 500gr 2pz;3,65
CAPPU0000125;CAVOLFIORE DOGE;4,50
CAR000000102;CAROTE BONECHI;6,95
CAR000000115;CAROTE X 1 VASCHETTA FUSI S.;1,10
CARO00000115;CAROTE FUSI S.;2,95
CARO20000102;CAROTE CIUFFO 2mazzi BON;1,95
CARS25000102;CAROTE SACCHI 10kg 2a BONECHI;2,95
CARV10000102;CAROTE VAX 1pz BONECHI;1,10
CARV20000102;CAROTE VAX 2pz. BON;1,95
CASTAGNE0103;CAVOLO CAPP. VIOLA Flli TESI;4,20
CAVBR0000115;CAV. BRUXELLES X1 VASCHETTA FU;2,00
CAVC00000102;CAVOLO CAPPUCCIO BONECHIFRUTTA;6,95
CAVFI0000130;CAVOLFIORE BARBERA;4,00
CAVFIO000103;CAVOLFIORE F.lli TESI;2,70
CAVN00000102;CAVOLO NERO BONECHI;4,95
CAVOC0000130;CAVOLO CINESE BARBERA;3,50
CAVOLFIO0103;CAVOLO CINESE F.LLI TESI;4,90
CAVOLVER0103;CAVOLO CAPPUCCIO . F.lli TESI;2,50
CAVRP0000115;CAVOLO NERO FUSI S.;2,95
CAVV00000109;CAVOLO VERZA CENTRO FRUTTA;2,50
CECI05000102;CECI 5Kg. BONECHI;18,95
8010870353061;sec. CECI 500gr. x 2pz. BONE;3,85
CECI50000102;sec. CECI 500gr. x 2pz. BONE;3,85
8003855200344;CECI AL NATURALE x 2,8KG BONEC;2,95
CECINAT00102;CECI AL NATURALE x 2,8KG BONEC;2,95
CET000000102;CETRIOLI BONECHI;5,95
CET000000103;CETRIOLI F.LLI TESI;3,00
CET000000109;CETRIOLI CENTRO FRUTTA;2,30
CET000000115;CETRIOLI CORTI FUSI S.;2,50
CET000000117;CETRIOLI;3,00
CETLUN000130;CETRIOLI LUNGHI BARBERA;3,00
CIBS00500102;CIP. BIANCHE  5Kg BONECHI;2,45
CIC000000102;CICORIA  BONECHI;2,95
CIC000000103;CICORIA  F.lli TESI;2,00
CIC000000115;CICORIA PUNTARELLE FUSI S.;5,45
CICLA0300102;F. CICLAMINI VASO PZ BON;3,95
CICOLIS00117;CICORIA LISCIA;3,00
CIDDE0500102;CIP. DORATE  5Kg  BON;1,95
CIDDE1000102;CIP. DORATE 10KG Germania BON;3,45
CIDE05000102;CIP. DORATE  5Kg Emilia BON;2,95
8013917849763;CIP.  rete 1Kg DORATE BON;0,95
8015643120109;CIP.  rete 1Kg DORATE BON;0,95
CIDR00100102;CIP.  rete 1Kg DORATE BON;0,95
CIDS10000102;CIP. DORATE 10kg BONECHI;4,95
CILIEG000125;CICORIA FLACCA;2,50
CIP000000102;CIPOLLINE fresche BONECHI;2,95
CIPOLL000103;CIPOLLINE BIANCHE F.LLI TESI;1,00
CIPP00000115;CIPOLLINE PELATE X1pz FUSI S.;1,35
CIPRM0000115;CIP. TROPEA IGP X1 MZ. FUSI S.;2,30
CIPRT5000102;CIPOLLE R. TRECCIA Tropea;5,95
8015643130108;CIP.  rete 1Kg ROSSE BON;0,95
CIPS00100102;CIP.  rete 1Kg ROSSE BON;0,95
CIPS00500102;CIP. ROSSE  5Kg  BONECHI;2,95
CIPTMX000102;CIP. TROPEA mazzi 1pz BON;2,30
CIPTRBG00102;CIPOLLA Tropea a collo BONECHI;2,95
CL3BER000125;CLEMENTINI 4/5 TONO SPAGNA;7,90
CLEES0000102;CLEMENTINI  BONECHIFRUTTA;12,95
CLEF00000102;CLEMENTINI FOGLIA  BONECHI;8,95
COT000000102;MELE COTOGNE pad. BON;6,95
8010870354075;sec. COUS COUS kg1 x 1pz BON;2,45
8032263000611;sec. COUS COUS kg1 x 1pz BON;2,45
COUS00000102;sec. COUS COUS kg1 x 1pz BON;2,45
CRAL00000102;CAVOLO CAPPUCCIO VIOLA BONECHI;5,95
6191529000061;sec. DATTERI KENTA 250gr 2pz;1,95
DATS20000102;sec. DATTERI KENTA 250gr 2pz;1,95
DECA00000115;PERE DECANA 14 FUSI S.;6,95
DECA18000115;PERE DECANA 18 FUSI S.;4,95
DIOS00000130;DIOSPERI BARBERA;2,50
FAGB00000115;FAG. MANGIATUTTO NOSTRALI FUSI;7,30
8006183003038;sec. FAG. BORLOTTI 500gr 2pz;3,65
8010870309044;sec. FAG. BORLOTTI 500gr 2pz;3,65
8010870311603;sec. FAG. BORLOTTI 500gr 2pz;3,65
8033576263052;sec. FAG. BORLOTTI 500gr 2pz;3,65
FAGBPC000102;sec. FAG. BORLOTTI 500gr 2pz;3,65
FAGBUR000125;FAGIOLINI  BOBY SERENA;4,90
8003855200337;FAG. CANNELLINI cotti 2,8Kg;2,95
FAGCAN000102;FAG. CANNELLINI cotti 2,8Kg;2,95
FAGIOL000103;FAGIOLINI F.lli TESI;2,50
FAGTAC000103;FAGIOLI CORALLO  F.lli TESI;4,50
FAGTAC000117;TACCOLE;3,00
8004671000316;sec. FARINA CASTAGNE 500gr.1pz;4,45
FARDS0500102;sec. FARINA CASTAGNE 500gr.1pz;4,45
8004671000910;sec. FARINA di CECI 1pz 500 gr;1,50
FARIC0000102;sec. FARINA di CECI 1pz 500 gr;1,50
8002727000013;sec. FARINA GIALLA FIO/BRA 1Kg;1,25
8002727000037;sec. FARINA GIALLA FIO/BRA 1Kg;1,25
8004671001214;sec. FARINA GIALLA FIO/BRA 1Kg;1,25
8004671001221;sec. FARINA GIALLA FIO/BRA 1Kg;1,25
FARIG0000102;sec. FARINA GIALLA FIO/BRA 1Kg;1,25
8010870364142;sec. FARRO PERLATO 500g 1pz;1,95
8010870365057;sec. FARRO PERLATO 500g 1pz;1,95
8016016200039;sec. FARRO PERLATO 500g 1pz;1,95
FARROP000102;sec. FARRO PERLATO 500g 1pz;1,95
FICDA1800102;FICHI D INDIA 18 BONECHI;4,45
5202057444201;sec. FICHI SECCHI 250gr 1pz;1,65
5202057444423;sec. FICHI SECCHI 250gr 1pz;1,65
5204138141108;sec. FICHI SECCHI 250gr 1pz;1,65
5204138141115;sec. FICHI SECCHI 250gr 1pz;1,65
FICS00500102;sec. FICHI SECCHI 250gr 1pz;1,65
FINA16000102;FINOCCHI 13pz pad;4,95
FINII0000103;FINOCCHI  F.lli TESI;3,90
FINO00000115;FINOCCHI FUSI S.;8,95
FINODO000125;FINOCCHI PAD DOGE;5,50
FINSEC000117;FINOCCHI pad. Fruit Store S.r.;3,00
FINZ00000102;FINOCCHI 2a BON;3,95
FIO000000115;FIORI DI ZUCCA FUSI S.;3,95
FIORIZUC0102;FIORI DI ZUCCA A COLLO BONECHI;1,95
FIORZD000125;FIORI ZUCCA TANGANEL.;4,00
FIOZUC000130;FIORI DI ZUCCA BARBERA;3,00
FIOZUX000109;FIORI DI ZUCCA CENTROFRUTTA;3,00
FRAO00000102;FRAGOLE pad BONECHI;5,95
FRUMAC000102;FRUTTA E VERDURA 2a BONECHI;1,50
FUJA00000102;MELE FUJI pad. BONECHI;7,45
8033020412104;FUNGHI CHAMPIGNON VAX x 2pz;1,95
FUNCV0000102;FUNGHI CHAMPIGNON VAX x 2pz;1,95
FUNGC0000102;FUNGHI CHAMPIGNON  BONECHI;2,95
FUNGPE000102;FUNGHI PLEUROTUS BON;3,95
FUNGPO000102;FUNGHI PORCINI BONECHI;9,95
8033650350104;FUNGHI CHAMPIGNON vax a collo;3,95
FUNGV0000102;FUNGHI CHAMPIGNON vax a collo;3,95
FUNPOSEC0102;sec. FUNGHI PORCINI SECCHI 50g;3,95
GENB00000115;INS. GENTILE FUSI S.;1,30
GENT00000125;INSALATA ROMANA TANGANELLI;1,00
GENTILE00103;INSALATA GENTILE 1 FLLI TESI;1,00
GENX00000109;gentile cf;2,00
GENZ00000115;INS. GENTILE NOSTRALE FUSI S.;3,45
GINGER000102;GINGER x 1 pz BONECHI;1,95
GOLA00000102;MELE GOLDEN pad. BONECHI;5,95
GOLM00000115;MELE GOLDEN PAD. FUSI S.;3,50
GOLX00000102;MELE GOLDEN plato BONECH;5,95
IMPA00000102;MELE IMPERO pad BONECHIFRUTTA;5,95
INLACO000125;INSALATA LATTUGA SPAZZINI;1,00
INROFO000125;INSALATA ROMANA FLACCA;1,50
INROM0000125;INSALATA ROMANA SPAZZINI;1,00
8012061110002;INSALATA buste x 1pz BONE;1,65
INSA10000102;INSALATA buste x 1pz BONE;1,65
INSALATAS103;INSALATA LATTUGA F.lli TESI;1,00
INSALATIN102;INS. MISTA a collo BON;1,95
INSB00000130;INS. BICOLORE BARBERA;2,50
INSBRA000103;INSALATA GENTILE F.LLI TESI;1,00
INSC00000130;INS.CANASTA BARBERA;2,50
INSCAN000125;INSALATA CANASTA TANGANELLI;1,00
INSG00000130;INS. GENTILE BARBERA;2,50
INSGENT00125;INSALATA LATTUGA VALLE;1,50
INSLA0000130;INSALATA LATTUGA BARBERA;2,00
KAKA18000102;KAKI x 18 BONECHIFRUTTA;3,95
KAKM00000115;LOTI A MELA FUSI S.;4,95
KAKMES000102;KAKI MELA pad. Spagna BON;3,95
KIWV00000102;KIWI vax 1pz.  BON;1,45
KIWV20000102;KIWI vax 2pz. BONECHI;2,50
LATO00000109;INS. LATTUGA CENTROFRUTTA;2,00
LATO00000117;INS. LATTUGA Fruit Store S.r.L;2,50
LATO60000115;INS. LATTUGA NOSTRALE FUSI S.;2,00
LATTU0000125;INSALATA LATTUGA GANDINI;1,00
LATTUGA00103;INSALATA LATTUGA 1 F.lli TESI;1,00
LATX00000115;INS. LATTUGA EX. FUSI S.;3,95
8003855111053;LENTICCHIA POMILIA X2 PZ. FUSI;1,50
LEE000000115;LENTICCHIA POMILIA X2 PZ. FUSI;1,50
8010870368058;sec. LENTICCHIE 500gr 1pz;1,45
8033661301041;sec. LENTICCHIE 500gr 1pz;1,45
LENTB2000102;sec. LENTICCHIE 500gr 1pz;1,45
LIM000000102;LIMONI cart. BONECHIFRUTTA;9,95
LIME00000125;LIME;3,50
LIMF00000115;LIMONI X1 VASCHETTA FUSI S.;2,30
LIMTR0000102;LIMONI plato BON;12,95
LIMV00000102;LIMONI vaschetta x 1pz BONECHI;1,95
LOL000000109;ins lollo centrofrutta;2,00
LOLO00000115;LOTI II FUSI S.;1,50
LOT000000103;LOTI  1 F.lli TESI;2,00
LOT000000115;LOTI 18 FUSI S.;2,50
LOTI00000103;LOTI  F.lli TESI;2,00
LOTI00000109;LOTI CENTROFRUTTA;2,90
LOTIPA000125;LOTI  20 SPAGNA;3,20
LOTVAS000125;LOTI 24 VALDINOCCI;2,60
8019974162517;sec. LUPINI barattolo 250gr B;1,85
LUPIN0000102;sec. LUPINI barattolo 250gr B;1,85
MANGO0000102;MANGO BONECHIFRUTTA;7,95
MANGO0000103;LOTI 2 F.lli TESI;3,00
MAR500300102;MARRONI 50/55 KG 3 BON;11,95
MAR600000102;MARRONI  5KG sacchi BON;14,95
MAR700300102;MARRONI 70/75 KG 3 BON;9,95
MARMCILEG102;MARM.CILIEGE 1pz BONECHI;3,95
MARMPESCH102;MARM.PESCHE 1pz.BONECHI;3,95
MEGA00000102;MELE GRANNY SMITH pad BONECHI;5,95
MEGO85M00125;MELANZANE LUNGHE FLACCA;3,90
MELAN0000102;MELANZANE plast BONECHI;3,45
MELAN0000130;MELE ANNURKE BARBERA;9,00
MELBU0000102;MELE Busta 2Kg VARIE    BON;1,95
MELLA0000109;MELANZANE LUNGHE CENTRO FRU;3,90
MELLU0000130;MELANZANE LUNGHE BARBERA;3,50
MELLUN000103;MELANZANE LUNGHE F.lli TESI;3,00
MELLUN000130;MELANZANE LUNGHE 2 BARBERA;4,00
MELOG0000102;MELOGRANE BONECHIFRUTTA;5,95
MELOGRANO102;MELOGRANO PADELLA BONECHI;5,95
MELOGT000109;MELOGRANE TURCHIA C.F.;8,00
MELST0000130;MELANZANZANE PERLINA;4,00
MELSTA000125;MELE STARK CASSE LAV PRIM;4,90
MELSTR000117;MELANZANA STRIATA;5,00
MELSTRIAT103;RADICCHIO VARIEGATO F.lli TESI;2,50
MELT00000102;MELANZANE TONDE  BONECHI;4,95
MELT00000130;MELANZANE TONDE NERE BARBERA;2,50
MELTON000117;MELANZANA TONDA;3,00
MELUNI000125;MELOGRANI 8 SPAGNA;6,50
MELVI0000130;MELANZANE VIOLA BARBERA;2,50
MERGLA000125;MELE R.GALA CASSE PRIMIZIE;5,50
MEROGA000125;MELE GOLDEN PAD.80  MELINDA;3,00
MESTAY000125;MELE STAYMAN II VIGNALI;3,50
METOPLA00126;MELANZ. TONDE TOSCANA 1;3,95
MINE00000102;MINESTRONE BONECHI;3,90
MINICIC00102;F. MINI CICLAMINI BONECHI;1,95
8010870369505;sec. MISTO LEGUMI 250gr x 1pz;1,25
8033576263168;sec. MISTO LEGUMI 250gr x 1pz;1,25
MISTOLEG0102;sec. MISTO LEGUMI 250gr x 1pz;1,25
8007049930024;MOUSSE DI FRUTTA cart. BON;8,50
8007049930031;MOUSSE DI FRUTTA cart. BON;8,50
8007049930055;MOUSSE DI FRUTTA cart. BON;8,50
8007049930093;MOUSSE DI FRUTTA cart. BON;8,50
8007049930116;MOUSSE DI FRUTTA cart. BON;8,50
8007049930147;MOUSSE DI FRUTTA cart. BON;8,50
MOUSSE000102;MOUSSE DI FRUTTA cart. BON;8,50
NAV400000102;AR. NAVEL 4 BONECHIFRUTTA;11,95
NAVES0000102;AR. NAVEL 3 Spagna BONECHI;10,95
NOCBU0000102;NOCI buste 500gr  BON;2,95
NOCBU0500102;NOCI BUSTE 5Kg BON;22,45
NOCBU2000102;NOCI buste 500gr 2pz BON;4,95
NOCV01000102;NOCI VAX 1Kg  BONECHI;2,95
ODO000000115;ODORI SALVIA E RAMERINO FUSI;1,50
ODOP00000102;ODORI MISTI BONECHIFRUTTA;1,45
8019974125000;sec. OLIVE NERE-CONDITE 500gr;3,10
8019974215008;sec. OLIVE NERE-CONDITE 500gr;3,10
OLIV20000102;sec. OLIVE NERE-CONDITE 500gr;3,10
8019974045001;sec. OLIVE DOLCI-NOSTRANE 500g;2,95
8019974065009;sec. OLIVE DOLCI-NOSTRANE 500g;2,95
8019974115001;sec. OLIVE DOLCI-NOSTRANE 500g;2,95
OLIVD0000102;sec. OLIVE DOLCI-NOSTRANE 500g;2,95
OLIVX0000102;OLIVE Verdi BON;12,95
8010870373038;sec. ORZO PERLATO 500gr. 1pz;1,10
ORZOP5000102;sec. ORZO PERLATO 500gr. 1pz;1,10
PAGISE000125;PATATE TERRA  PRIMIZIE;5,50
PANSE0000102;F. PANSEE BONECH;1,95
PAS100000102;PASSATA POMILIA A COLLO 12pz;12,50
PASAVE000125;PATATE ROSSE X 10;5,50
8022583100191;PASSATA SAMMY 3Kg. x 1pz BON;2,30
PASMY3000102;PASSATA SAMMY 3Kg. x 1pz BON;2,30
PASMY3060102;PASSATA SAMMY 3Kg. x 6pz BON;12,90
8003855002009;PASSATA POMILIA x 2 pz BONECHI;2,45
PASS00000102;PASSATA POMILIA x 2 pz BONECHI;2,45
PAT000000125;PATATE SACCHI X 5 PRIMIZIE;1,80
PATB00000102;PATATE BIANCHE BONECHI;3,95
PATBK0000102;PATATE BIANCHE CASSE BON;2,95
PATDE1000102;PATATE 10kg GERMANIA BONECHI;2,45
PATFR1000102;PATATE 10kg BON;4,95
PATLDE010102;PATATE 10KG LAVATE Germania;2,95
8023169012624;PATATE  2kg BONECHI;1,20
8024696000030;PATATE  2kg BONECHI;1,20
8026082000013;PATATE  2kg BONECHI;1,20
8057438236350;PATATE  2kg BONECHI;1,20
PATN00200102;PATATE  2kg BONECHI;1,20
PATR00000102;PATATE ROSSE casse BONECHI;2,95
PATRFR500102;PATATE  5KG ROSSE BON;2,95
PATS00500102;PATATE  5Kg  BONECHI;2,95
PATS20000115;PATATE GIALLE FUSI S.;3,45
PATUSA000102;PATATA AMERICANA BONECHI;9,95
PATX10000125;PATATINO ROSSO SACCHI X 10;1,90
PATX20000125;PATATE SACCHI X 10 GIALLE;2,90
PATX50000125;PATATE SACCHI X5 BOLGHERI;2,40
PEAB18000125;PERE ABATE PAD 16 VALDINOCCI;5,50
PEABA0000125;MELE STAYMAN LAVORAZ. PRIM;5,00
PEAR00000126;PEPERONI MISTI TOSCANA 1;3,95
PECONF000125;PERE ABATE  14 SIMONI;6,90
PEFRIROS0117;FRIGGITELLI ROSSI;5,00
PEFRIVER0117;FRIGGITELLI VERDI;5,00
PEL120000102;POM.Pomilia PELATI 800gr 12pz;16,80
PEL240000102;POM.Pomilia PELATI 400gr 24pz;18,50
8003855001033;POM.Pomilia PELATI 400gr  2pz;1,60
PEL400000102;POM.Pomilia PELATI 400gr  2pz;1,60
8003855001040;POM.Pomilia PELATI 800gr  2pz;3,10
PEL800000102;POM.Pomilia PELATI 800gr  2pz;3,10
8022583100153;POM.SAMMY.pelati  2,5kg 1pz;2,45
PELSY0000102;POM.SAMMY.pelati  2,5kg 1pz;2,45
PELSY6000102;POM.SAMMY.pelati  2,5kg 6pz;12,50
PEPAG0000102;PEPERONI GIALLI pad. BONEC;8,45
PEPAR0000102;PEPERONI ROSSI pad BONECHI;8,95
PEPEROSSI103;PEPERONI GIALLI F.LLI TESI;5,00
PEPFRI000125;ZUCCHE GIALLE BARTOLI;1,20
PEPGI0000125;PEPERONI CHERRY TANGANELLI;2,00
PEPM00000115;PEPERONI GIALLI FUSI S.;3,95
PEPPIC000125;PEPERONI VERDI CUSUMANO;4,90
PEPR00000103;PEPERONI VERDI F.lli TESI;4,50
PERABA000125;PERE ABATE 20 SIMONI;3,50
PERCCP000115;PERE COSCE BAULINO FUSI S.;13,95
PERCOT000102;PERE COTOGNE  BONECHI;14,95
PEROSP000125;PATATINO PRIM;2,00
PESBIA000103;PESCHE BIANCHE F.lli TESI;2,00
PESCI0000125;INSALATA GENTILE SPAZZINI;1,00
PESSCA000115;PESCHE GIALLE FUSI S.;3,95
PEWIBI000125;PERE COSCE PAD 24 SIBA SPAGNA;3,50
PIASANS00102;F. SANSEVERIE BON;6,95
PIATT0000102;FAG. PIATTELLINI;13,50
POLPA0000115;POLPA POMILIA X2 PZ FUSI S.;1,95
POMCB0000126;POMOD. GRAPPOLO TOSCANA 1;5,95
8003855101030;CECI/CANN/BORL POMILIA X2 PZ.;1,50
8003855101047;CECI/CANN/BORL POMILIA X2 PZ.;1,50
8003855101061;CECI/CANN/BORL POMILIA X2 PZ.;1,50
POMCC0000115;CECI/CANN/BORL POMILIA X2 PZ.;1,50
8022583100290;POM.SAMMY.polpa 2,5kg 1pz;2,45
POMCU0000102;POM.SAMMY.polpa 2,5kg 1pz;2,45
POMCU0000130;POMOD.CUORE DI BUE BARBERA;3,50
POMCU6000102;POM.SAMMY.polpa 2,5kg 6pz;12,50
POMDES000102;POMOD. DANIELA  BONECHI;10,95
POMELG000102;POMELO GIALLO 1pz BON;1,95
POMELG200102;POMELO GIALLO 2pz BON;2,95
POMGE0000126;POM. CUORE DI BUE TOSCANA1;4,95
8003855001545;POM. CILIEGINO POMILIA X2 PZ.;1,95
POMI00000115;POM. CILIEGINO POMILIA X2 PZ.;1,95
POMINS000126;POM. insalatari TOSCANA 1;5,95
8033650354027;sec. POM.SECCHI 250gr x 1 vax;2,95
POMSEC000102;sec. POM.SECCHI 250gr x 1 vax;2,95
POMVAC000102;POMOD. VERDE pad. BONECHI;5,95
POPG00000102;MELONI GIALLI BONECHI;5,45
POPM00000115;POM. PELATI X800 GR.POMILIA;1,45
POR000000115;PORRI VASCO FUSI S.;4,45
POSMRB000102;POMOD. S.M. ROSSO plato BONECH;6,95
POSMRX000102;POMOD. S.M. ROSSO BONECH;7,95
POT000000102;F. POTUS BONECHIFRUTTA;8,95
PREM00000102;PREZZEMOLO 1 MAZZO BO;1,20
3297680411036;sec. PRUGNE Denocc. 250g 1pz;1,85
3360562066331;sec. PRUGNE Denocc. 250g 1pz;1,85
PRUD00000102;sec. PRUGNE Denocc. 250g 1pz;1,85
RADA00000102;RADICCHIO ROSSO BONECHI;2,95
RADO00000102;RADICCHIO a collo BONECH;3,95
RADRX0000102;RADICCHIO ROSSO polist. BONECH;3,45
RADT00000109;RADICCHIO ROSSO CENTRO FRUTTA;3,90
RADTA0000115;RAD. BELGA FUSI S.;1,80
RADTR0000102;RADICCHIO TREVISANO BON;5,45
RAP000000102;RAPE BONECHI;5,95
RAP000000115;RAPE VASCO FUSI S.;2,95
RAPA00000115;RAPE NOSTRALI FUSI S.;3,95
8003473619870;RAPE ROSSE 400gr x 2pz BON;1,95
RAPRO0000102;RAPE ROSSE 400gr x 2pz BON;1,95
RAV000000102;RAVANELLI BONECHIFRUTTA;3,95
RAVA00000125;RAVANELLI LA FLACCA;3,00
RAVO00000102;RAVANELLI  BONECHI;3,95
RAVO00000109;RAVANELLI CENTRO FRUTTA;2,50
RENA00000102;MELE RENETTE pad  BONECHI;7,95
8853096009134;RISO THAILANDESE x 1pz BONEC;1,85
RISOTAI00102;RISO THAILANDESE x 1pz BONEC;1,85
ROM200000109;ROMANA CENTROFRUTTA;2,00
ROMX00000115;INS. ROMANA NOSTRALE FUSI S.;2,00
ROMZ00000115;INS. ROMANA PADELLONE FUSI S.;1,80
ROY000000102;MELE ROYAL plato BONECHI;5,95
ROYA00000102;MELE ROYAL pad. BONECHI;4,95
RUCO00000115;RUCOLA FUSI S.;2,95
RUCO00000130;RUCOLA BARBERA;2,00
RUCOLA000103;INSALATA RUCOLA F.LLI TESI;1,50
RUCOX0000102;RUCOLA cartone BONECHI;3,95
SATSPA000125;SUSINE SPAGNA;3,90
3760124142013;SCALOGNO SACCH 250 GR PRIMIZIE;0,75
SCAL00000125;SCALOGNO SACCH 250 GR PRIMIZIE;0,75
20253479;SCALOGNO 250gr x 2pz BONECHI;1,95
3000007044462;SCALOGNO 250gr x 2pz BONECHI;1,95
3760091090027;SCALOGNO 250gr x 2pz BONECHI;1,95
3760091092533;SCALOGNO 250gr x 2pz BONECHI;1,95
SCAL20000102;SCALOGNO 250gr x 2pz BONECHI;1,95
SED000000102;SEDANO  BONECHI;3,95
SED000000115;SEDANO FUSI S.;0,70
SEDA00000125;SEDANO MISS;2,50
SEDDOP000125;SPINACI LA FLACCA;2,50
SHOPPER00102;SHOPPER TNT TELA;1,00
SMIT00000115;MELA G.SMITH FUSI S.;3,95
SPATIPHI0102;F. SPATIPHILIUM x 1pz medi;6,95
SPINACI00109;SPINACI C.FRUTTA;3,00
SPIS00000115;SPINACI VASCO FUSI S.;3,95
SPIX00000115;SPINACI CASSA FUSI S.;3,95
STAA00000102;MELE STAYMAN pad BONECHI;5,95
STR000000102;MELE STARK plato BONECHI;5,95
STRA00000102;MELE STARK padella BONECHI;5,95
STVAB0000102;MELE STARK La Trentina BON;4,95
718791821161;SUCCHI BEST MANGO x 1 BONECHI;1,75
SUCCHI000102;SUCCHI BEST MANGO x 1 BONECHI;1,75
5011898009018;SUCCHI BEST GUAVA  x 1 BONECHI;1,75
718791821369;SUCCHI BEST GUAVA  x 1 BONECHI;1,75
SUCCHIG00102;SUCCHI BEST GUAVA  x 1 BONECHI;1,75
024000101765;SUCCHI D.Monte 1lt  MELOGRANO;1,45
SUCDMMEL0102;SUCCHI D.Monte 1lt  MELOGRANO;1,45
024000101703;SUCCHI D.Monte 1lt  ACE;1,45
SUCDMP000102;SUCCHI D.Monte 1lt  ACE;1,45
8032958640177;SUCCO MELA 100% Box 2lt;3,45
SUCMELA20102;SUCCO MELA 100% Box 2lt;3,45
8032958640191;SUCCO MELA-MORA 100% Box 2lt;3,95
SUCMEMOR2102;SUCCO MELA-MORA 100% Box 2lt;3,95
5060127920037;SPREMUTA DI FRUTTA MELOGRANO;1,75
8033712090221;SPREMUTA DI FRUTTA MELOGRANO;1,75
SUCVAR200102;SPREMUTA DI FRUTTA MELOGRANO;1,75
8033712090054;SPREMUTA DI FRUTTA MIRTILLO;2,10
SUCVAR300102;SPREMUTA DI FRUTTA MIRTILLO;2,10
UVAB00000115;UVA ITALIA FUSI S.;9,95
UVAIBY000102;UVA ITALIA cartoncini BON;2,95
UVARG0000102;UVA RED GLOBE BONECHIFRUTTA;17,95
8005324009243;sec. UVETTA SULTANINA  1 pz;1,35
UVETTA000102;sec. UVETTA SULTANINA  1 pz;1,35
UVPALI000125;UVA REGAL  LISO;9,90
VAL400000115;AR.VALENCIA FUSI S.;9,95
WIL000000115;PERE W. BIANCA 20 FUSI S.;5,95
WILA00000115;PERE W. BIANCA 22 FUSI S.;3,95
WIRA20000115;PERE WILLIAMS ROSSE FUSI S.;5,95
ZBANA0000102;BANANE 2a CARTONE BONECHI;6,95
ZCARS0000102;CAROTE SACCHI  5Kg 2a BONECHI;1,95
ZCIPS1000102;CIP. PICCOLE 10kg BONECHI;2,95
ZFIN00000102;FINOCCHI 10 pz BONECHI;4,95
ZGOVA0000102;MELE GOLDEN MelaSi pad. BON;3,95
ZPATS1000102;PATATE 10Kg piccole BONECHI;2,95
ZUC000000102;ZUCCHINE  BONECHI;4,45
ZUC000000126;ZUCCHINE fiore TOSCANA 1;5,95
ZUCANT000125;ZUCCHE SCURE II LORENZINI;4,20
ZUCB00000115;ZUCCHE FIORE PASQUALE FUSI S.;4,95
ZUCC00000102;ZUCCHINE plato  BONECHI;3,95
ZUCCHEF00125;ZUCCHE MANTOVANE LORENZ.;5,90
ZUCE00000126;ZUCCHINE bauletto TOSCANA1;4,95
ZUCF00000130;ZUCCHE CON FIORE BARBERA;3,50
ZUCFB0000102;ZUCCHE FIORE  BONECHI;3,95
ZUCFC0000115;ZUCCHE FIORE VASCO FUSI S.;6,95
ZUCFCB000102;ZUCCHE FIORE pl BONECHI;7,95
ZUCG50000102;ZUCCHE GIALLE TONDE 1pz. BON;4,95
ZUCGI0000109;zucche gialle x 1;2,00
ZUCGM0000102;ZUCCHE GIALLE LUNGHE 1pz BON;5,95
ZUCGV0000102;ZUCCA GIALLA TAGLIATA x 1pz;1,20
ZUCH10000102;ZUCCHE HALLOWEEN medie 1pz;2,95
ZUCH20000102;ZUCCHE HALLOWEEN piccola 2pz;4,00
ZUCHB0000102;ZUCCHE HALLOWEEN piccola 1pz;2,45
ZUCHG0000102;ZUCCHE HALLOWEEN GIGANTE 1pz;39,95
ZUCHX0000102;ZUCCHE HALLOWEEN grosse 1pz;5,45
ZUCLIS000125;ZUCCHE FIORE  VALLE;4,90
ZUCN00000102;ZUCCHINE nere BON;3,45
ZUCSC0000130;ZUCCHE SCURE BARBERA;3,00
ZUVAI0000102;UVA ITALIA Noemi BONECHI;4,95
ZZUC00000102;ZUCCHINE 2a BONECHI;4,45
